Text Mining
…
Case Study: Trump Tweets

We are interested in what happened during the campaign:

campaign_tweets <- trump_tweets |> 
  extract(source, "source", "Twitter for (.*)") |>
  filter(source %in% c("Android", "iPhone") & 
           created_at >=ymd("2015-06-17") &
           created_at < ymd("2016-11-08")) |>
  filter(!is_retweet) |> 
  arrange(created_at) |>
  as_tibble()
campaign_tweets

# A tibble: 3,950 × 8
   source  id_str text  created_at          retweet_count in_reply_to_user_id_…¹
   <chr>   <chr>  <chr> <dttm>                      <int> <chr>                 
 1 Android 61206… Why … 2015-06-19 20:03:05           166 <NA>                  
 2 Android 61206… I li… 2015-06-19 20:15:22          1266 <NA>                  
 3 Android 61207… Mexi… 2015-06-19 20:54:25          1033 <NA>                  
 4 Android 61208… Drug… 2015-06-19 21:22:29          1578 <NA>                  
 5 Android 61240… My s… 2015-06-20 18:48:43            86 <NA>                  
 6 Android 61241… Than… 2015-06-20 19:25:21           299 <NA>                  
 7 Android 61242… Who … 2015-06-20 19:57:54          1270 <NA>                  
 8 Android 61274… .@Ka… 2015-06-21 17:28:29           165 <NA>                  
 9 Android 61275… .@Ma… 2015-06-21 18:12:02           104 <NA>                  
10 Android 61276… The … 2015-06-21 18:50:55            94 <NA>                  
# ℹ 3,940 more rows
# ℹ abbreviated name: ¹​in_reply_to_user_id_str
# ℹ 2 more variables: favorite_count <int>, is_retweet <lgl>
…
Text Mining

Case Study: Trump Tweets

Now we are ready to extract the words for all our tweets.

tweet_words <- campaign_tweets |> 
  mutate(text = str_replace_all(text, links, ""))  |>
  unnest_tokens(word, text)
tweet_words

# A tibble: 68,061 × 8
   source  id_str       created_at          retweet_count in_reply_to_user_id_…¹
   <chr>   <chr>        <dttm>                      <int> <chr>                 
 1 Android 61206308218… 2015-06-19 20:03:05           166 <NA>                  
 2 Android 61206308218… 2015-06-19 20:03:05           166 <NA>                  
 3 Android 61206308218… 2015-06-19 20:03:05           166 <NA>                  
 4 Android 61206308218… 2015-06-19 20:03:05           166 <NA>                  
 5 Android 61206308218… 2015-06-19 20:03:05           166 <NA>                  
 6 Android 61206308218… 2015-06-19 20:03:05           166 <NA>                  
 7 Android 61206308218… 2015-06-19 20:03:05           166 <NA>                  
 8 Android 61206308218… 2015-06-19 20:03:05           166 <NA>                  
 9 Android 61206308218… 2015-06-19 20:03:05           166 <NA>                  
10 Android 61206308218… 2015-06-19 20:03:05           166 <NA>                  
# ℹ 68,051 more rows
# ℹ abbreviated name: ¹​in_reply_to_user_id_str
# ℹ 3 more variables: favorite_count <int>, is_retweet <lgl>, word <chr>

Text Mining

Case Study: Trump Tweets

Let ’ s look at the most common words .

tweet_words |> 
  count(word) |>
  arrange(desc(n))

# A tibble: 6,264 × 2
   word      n
   <chr> <int>
 1 the    2330
 2 to     1413
 3 and    1245
 4 in     1190
 5 i      1151
 6 a      1121
 7 you     999
 8 of      982
 9 is      944
10 on      880
# ℹ 6,254 more rows

Not surprising . Totally uninformative .

Text Mining

Case Study: Trump Tweets

stop_words has the most common words in the English language so we can ignore these.

stop_words

# A tibble: 1,149 × 2
   word        lexicon
   <chr>       <chr>  
 1 a           SMART  
 2 a's         SMART  
 3 able        SMART  
 4 about       SMART  
 5 above       SMART  
 6 according   SMART  
 7 accordingly SMART  
 8 across      SMART  
 9 actually    SMART  
10 after       SMART  
# ℹ 1,139 more rows
…
